[ 
 {
        "model": "lattes_data.ProducaoBibliografica",
        "pk": 1,
        "fields": {
            "bib_id": 1,
            "bib_tipo": "tipo1",
            "bib_titulo": "titulo 1 teste",
            "bib_ano": 1998,
            "bib_pais": "Brasil",
            "autores": [ 1 ]
        }
    },
    {
        "model": "lattes_data.ProducaoBibliografica",
        "pk": 2,
        "fields": {
            "bib_id": 2,
            "bib_tipo": "tipo1",
            "bib_titulo": "titulo 2 teste",
            "bib_ano": 2011,
            "bib_pais": "Brasil",
            "autores": [
                1,
                3
            ]
        }
    },
    {
        "model": "lattes_data.ProducaoBibliografica",
        "pk": 3,
        "fields": {
            "bib_id": 3,
            "bib_tipo": "tipo2",
            "bib_titulo": "titulo 3",
            "bib_ano": 2015,
            "bib_pais": "Brasil",
            "autores": [
                5
            ]
        }
    },
    {
        "model": "lattes_data.ProducaoBibliografica",
        "pk": 4,
        "fields": {
            "bib_id": 4,
            "bib_tipo": "tipo1",
            "bib_titulo": "titulo,4,foo e de do da",
            "bib_ano": 2015,
            "bib_pais": "Austrália",
            "autores": [
                2
            ]
        }
    },
    {
        "model": "lattes_data.ProducaoBibliografica",
        "pk": 5,
        "fields": {
            "bib_id": 5,
            "bib_tipo": "tipo1",
            "bib_titulo": "titulo 5,bar",
            "bib_ano": 2018,
            "bib_pais": "Espanha",
            "autores": [
                2
            ]
        }
    },
    {
        "model": "lattes_data.ProducaoBibliografica",
        "pk": 6,
        "fields": {
            "bib_id": 6,
            "bib_tipo": "tipo2",
            "bib_titulo": "titulo..teste 6,foo",
            "bib_ano": 2019,
            "bib_pais": "Cazaquistão",
            "autores": [
                5,
                3,
                6
            ]
        }
    }
]