[
    {
        "model": "lattes_data.Pessoa",
        "pk": 1,
        "fields": {
            "pe_id_lattes": 1,
            "pe_nome_completo": "John Lennon",
            "pe_nome_citacao": "LENNON, JOHN",
            "pe_nacionalidade": "Inglaterra",
            "pe_contato": "123123123",
            "pe_departamento": "AUH"
        }
    },
    {
        "model": "lattes_data.Pessoa",
        "pk": 2,
        "fields": {
            "pe_id_lattes": 2,
            "pe_nome_completo": "Zachery Gonzalez",
            "pe_nome_citacao": "GONZALES, ZACHERY",
            "pe_nacionalidade": "Brasil",
            "pe_contato": "123123123",
            "pe_departamento": "AUH"
        }
    },
    {
        "model": "lattes_data.Pessoa",
        "pk": 3,
        "fields": {
            "pe_id_lattes": 3,
            "pe_nome_completo": "Izabelle Wormald",
            "pe_nome_citacao": "WORMALD, IZABELLE",
            "pe_nacionalidade": "Brasil",
            "pe_contato": "123123123",
            "pe_departamento": "AUH"
        }
    },
    {
        "model": "lattes_data.Pessoa",
        "pk": 4,
        "fields": {
            "pe_id_lattes": 4,
            "pe_nome_completo": "Alessandra Lewis",
            "pe_nome_citacao": "LEWIS, ALESSANDRA",
            "pe_nacionalidade": "Brasil",
            "pe_contato": "123123123",
            "pe_departamento": "AUP"
        }
    },
    {
        "model": "lattes_data.Pessoa",
        "pk": 5,
        "fields": {
            "pe_id_lattes": 5,
            "pe_nome_completo": "Lucas Bate",
            "pe_nome_citacao": "BATE, LUCAS",
            "pe_nacionalidade": "Brasil",
            "pe_contato": "123123123",
            "pe_departamento": "AUT"
        }
    },
    {
        "model": "lattes_data.Pessoa",
        "pk": 6,
        "fields": {
            "pe_id_lattes": 6,
            "pe_nome_completo": "Saara Barnard",
            "pe_nome_citacao": "BARNARD, SAARA",
            "pe_nacionalidade": "Brasil",
            "pe_contato": "123123123",
            "pe_departamento": "AUP"
        }
    }
]
